\contentsline {chapter}{Contents}{2}{section*.1}
\contentsline {subsection}{Who is TPG?}{4}{section*.3}
\contentsline {subsection}{Why is TPG?}{4}{section*.4}
\contentsline {subsection}{WE ARE HIRING!}{4}{section*.5}
\contentsline {chapter}{\chapternumberline {1}Software Department}{5}{chapter.1}
\contentsline {subsection}{About the roles}{6}{section*.6}
\contentsline {subsection}{Skills and Experiences}{6}{section*.7}
\contentsline {subsection}{Working environment}{7}{section*.8}
\contentsline {subsection}{Career expectation}{7}{section*.9}
\contentsline {chapter}{\chapternumberline {2}Data \& Information Department}{9}{chapter.2}
\contentsline {subsection}{About the roles}{11}{section*.10}
\contentsline {subsection}{Skills and Experiences}{11}{section*.11}
\contentsline {subsection}{Working environment}{12}{section*.12}
\contentsline {subsection}{Career expectation}{12}{section*.13}
\contentsline {chapter}{\chapternumberline {3}Computer Science Department}{13}{chapter.3}
\contentsline {subsection}{About the roles}{15}{section*.14}
\contentsline {subsection}{Skills and Experiences}{15}{section*.15}
\contentsline {subsection}{Working environment}{16}{section*.16}
\contentsline {subsection}{Career expectation}{16}{section*.17}
\contentsline {subsection}{\newline Send your resume/CV to}{18}{section*.20}
\contentsline {subsection}{\newline Visit our offical recruiting website on SEEK}{18}{section*.22}
