\relax 
\providecommand\hyper@newdestlabel[2]{}
\providecommand*{\memsetcounter}[2]{}
\providecommand\HyperFirstAtBeginDocument{\AtBeginDocument}
\HyperFirstAtBeginDocument{\ifx\hyper@anchor\@undefined
\global\let\oldcontentsline\contentsline
\gdef\contentsline#1#2#3#4{\oldcontentsline{#1}{#2}{#3}}
\global\let\oldnewlabel\newlabel
\gdef\newlabel#1#2{\newlabelxx{#1}#2}
\gdef\newlabelxx#1#2#3#4#5#6{\oldnewlabel{#1}{{#2}{#3}}}
\AtEndDocument{\ifx\hyper@anchor\@undefined
\let\contentsline\oldcontentsline
\let\newlabel\oldnewlabel
\fi}
\fi}
\global\let\hyper@last\relax 
\gdef\HyperFirstAtBeginDocument#1{#1}
\providecommand\HyField@AuxAddToFields[1]{}
\providecommand\HyField@AuxAddToCoFields[2]{}
\pgfsyspdfmark {pgfid1}{1910890}{20621521}
\@writefile{toc}{\contentsline {chapter}{Contents}{2}{section*.1}}
\@writefile{toc}{\contentsline {subsection}{Who is TPG?}{4}{section*.3}}
\@writefile{toc}{\contentsline {subsection}{Why is TPG?}{4}{section*.4}}
\@writefile{toc}{\contentsline {subsection}{WE ARE HIRING!}{4}{section*.5}}
\@writefile{lof}{\addvspace {10pt}}
\@writefile{lot}{\addvspace {10pt}}
\@writefile{toc}{\contentsline {chapter}{\chapternumberline {1}Software Department}{5}{chapter.1}}
\@writefile{toc}{\contentsline {subsection}{About the roles}{6}{section*.6}}
\@writefile{toc}{\contentsline {subsection}{Skills and Experiences}{6}{section*.7}}
\@writefile{toc}{\contentsline {subsection}{Working environment}{7}{section*.8}}
\@writefile{toc}{\contentsline {subsection}{Career expectation}{7}{section*.9}}
\@writefile{lof}{\addvspace {10pt}}
\@writefile{lot}{\addvspace {10pt}}
\@writefile{toc}{\contentsline {chapter}{\chapternumberline {2}Data \& Information Department}{9}{chapter.2}}
\@writefile{toc}{\contentsline {subsection}{About the roles}{11}{section*.10}}
\@writefile{toc}{\contentsline {subsection}{Skills and Experiences}{11}{section*.11}}
\@writefile{toc}{\contentsline {subsection}{Working environment}{12}{section*.12}}
\@writefile{toc}{\contentsline {subsection}{Career expectation}{12}{section*.13}}
\@writefile{lof}{\addvspace {10pt}}
\@writefile{lot}{\addvspace {10pt}}
\@writefile{toc}{\contentsline {chapter}{\chapternumberline {3}Computer Science Department}{13}{chapter.3}}
\@writefile{toc}{\contentsline {subsection}{About the roles}{15}{section*.14}}
\@writefile{toc}{\contentsline {subsection}{Skills and Experiences}{15}{section*.15}}
\@writefile{toc}{\contentsline {subsection}{Working environment}{16}{section*.16}}
\@writefile{toc}{\contentsline {subsection}{Career expectation}{16}{section*.17}}
\@writefile{toc}{\contentsline {subsection}{\newline  Send your resume/CV to}{18}{section*.20}}
\@writefile{toc}{\contentsline {subsection}{\newline  Visit our offical recruiting website on SEEK}{18}{section*.22}}
\memsetcounter{lastsheet}{21}
\memsetcounter{lastpage}{21}
